…
```r
# first 10 observations
pbp_data
```

```
## # A tibble: 28,005 x 27
##      pid    player_name tourn_id         tournamen_name round_number
## *  <chr>          <chr>    <chr>                  <chr>        <int>
## 1  29745 Tyler Aldridge      471 Quicken Loans National            1
## 2  29745 Tyler Aldridge      471 Quicken Loans National            1
## 3  29745 Tyler Aldridge      471 Quicken Loans National            1
## 4  29745 Tyler Aldridge      471 Quicken Loans National            1
## 5  29745 Tyler Aldridge      471 Quicken Loans National            1
## 6  29745 Tyler Aldridge      471 Quicken Loans National            1
## 7  29745 Tyler Aldridge      471 Quicken Loans National            1
## 8  29745 Tyler Aldridge      471 Quicken Loans National            1
## 9  29745 Tyler Aldridge      471 Quicken Loans National            1
## 10 29745 Tyler Aldridge      471 Quicken Loans National            1
## # ... with 27,995 more rows, and 22 more variables: hole_number <dbl>,
## #   round_hole_num <dbl>, shot_num <chr>, putt_num <dbl>, type <chr>,
## #   prv <chr>, tee_shot <chr>, cup <chr>, from <chr>, to <chr>, asc <chr>,
## #   distance <dbl>, dist_left <chr>, x_loc <dbl>, y_loc <dbl>,
## #   z_loc <dbl>, club <chr>, con <chr>, shot_text <chr>, score <dbl>,
## #   par_for_day <dbl>, par_for_tourn <chr>
```
…
